{
    "_id": "3YQ1Wcjzk8ftoyo7",
    "data": {
        "boosts": {
            "0": {
                "value": [
                    "int",
                    "wis"
                ]
            },
            "1": {
                "value": [
                    "cha",
                    "con",
                    "dex",
                    "int",
                    "str",
                    "wis"
                ]
            }
        },
        "description": {
            "value": "<p>Astrologers look to the stars for signs and portents, using their positions to chart courses for those living beneath them. As the celestial spheres move, so does fate itself. You studied the stars and learned to divine your path based on their guidance. Whether the stars directly called you to a life of adventure or you use the stars to guide your wanderlust, you're living out the stars' guidance in a life of adventure.</p>\n<p>Choose two ability boosts. One must be to <strong>Intelligence</strong> or <strong>Wisdom</strong>, and one is a free ability boost.</p>\n<p>You're trained in Occultism and Astrology Lore. You gain the @Compendium[pf2e.feats-srd.Oddity Identification]{Oddity Identification} skill feat.</p>"
        },
        "items": {
            "prdi2": {
                "id": "hDGosy2ZTwnyctEP",
                "img": "systems/pf2e/icons/features/feats/feats.webp",
                "level": 1,
                "name": "Oddity Identification",
                "pack": "pf2e.feats-srd"
            }
        },
        "rules": [],
        "source": {
            "value": "Pathfinder Secrets of Magic"
        },
        "trainedLore": "Astrology Lore",
        "trainedSkills": {
            "custom": "",
            "value": [
                "occ"
            ]
        },
        "traits": {
            "custom": "",
            "rarity": {
                "value": "common"
            },
            "value": []
        }
    },
    "effects": [],
    "flags": {},
    "img": "systems/pf2e/icons/default-icons/background.svg",
    "name": "Astrologer",
    "type": "background"
}
