{
    "_id": "BBeJA7n0xpSsBCGq",
    "data": {
        "boosts": {
            "0": {
                "value": [
                    "dex",
                    "int"
                ]
            },
            "1": {
                "value": [
                    "cha",
                    "con",
                    "dex",
                    "int",
                    "str",
                    "wis"
                ]
            }
        },
        "description": {
            "value": "<p>You are the youngest child in a noble house (in Cheliax, Isger, or Andoran) and stand to inherit nothing from your family. Although you have a minor title, it affords you no lands or wealth, but it has garnered you a small amount of respect and deference in your travels. When play begins, you are riding in a caravan bound for Almas, where a cousin has promised to allow you to stay with them for a month.</p>\n<p>Choose two ability boosts. One must be to <strong>Dexterity</strong> or <strong>Intelligence</strong>, and one is a free ability boost.</p>\n<p>You're trained in the Diplomacy skill and the Heraldry Lore skill. You gain the @Compendium[pf2e.feats-srd.Hobnobber]{Hobnobber} skill feat.</p>"
        },
        "items": {
            "w46a5": {
                "id": "4RjDxgvNXNl5GG9d",
                "img": "systems/pf2e/icons/features/feats/feats.webp",
                "level": "1",
                "name": "Hobnobber",
                "pack": "pf2e.feats-srd"
            }
        },
        "rules": [],
        "source": {
            "value": "Pathfinder Adventure: The Fall of Plaguestone"
        },
        "trainedLore": "Heraldry Lore",
        "trainedSkills": {
            "value": [
                "dip"
            ]
        },
        "traits": {
            "custom": "",
            "rarity": {
                "value": "common"
            },
            "value": []
        }
    },
    "effects": [],
    "flags": {},
    "img": "systems/pf2e/icons/default-icons/background.svg",
    "name": "Lesser Scion",
    "type": "background"
}
