{
    "_id": "0yeM77XLNrB0a0LF",
    "data": {
        "baseItem": null,
        "brokenThreshold": {
            "value": 0
        },
        "bulkCapacity": {
            "value": ""
        },
        "collapsed": {
            "value": false
        },
        "containerId": {
            "value": ""
        },
        "description": {
            "value": "<p>This elegant silver band often resembles curling fig leaves and fits around your brow. You gain a +2 item bonus to Deception and Diplomacy checks. When you invest the circlet, you either increase your Charisma score by 2 or increase it to 18, whichever would give you a higher score.</p>\n<p><strong>Activate</strong> <span class=\"pf2-icon\">D</span> envision</p>\n<p><strong>Frequency</strong> once per hour</p>\n<p><strong>Effect</strong> You cast a 4th-level <em>@Compendium[pf2e.spells-srd.Charm]{Charm}</em> spell (DC 38).</p>\n<hr />\n<p>Automatically applied effects:</p>\n<ul>\n<li>+2 item bonus to Diplomacy checks</li>\n<li>+2 item bonus to Deception checks</li>\n</ul>"
        },
        "equipped": {
            "value": false
        },
        "equippedBulk": {
            "value": ""
        },
        "hardness": {
            "value": 0
        },
        "hp": {
            "value": 0
        },
        "identification": {
            "misidentified": {},
            "status": "identified",
            "unidentified": {
                "data": {
                    "description": {
                        "value": ""
                    }
                },
                "img": "",
                "name": ""
            }
        },
        "invested": {
            "value": false
        },
        "level": {
            "value": 17
        },
        "maxHp": {
            "value": 0
        },
        "negateBulk": {
            "value": "0"
        },
        "preciousMaterial": {
            "value": ""
        },
        "preciousMaterialGrade": {
            "value": ""
        },
        "price": {
            "value": "15000 gp"
        },
        "quantity": {
            "value": 1
        },
        "rules": [
            {
                "key": "FlatModifier",
                "selector": "deception",
                "type": "item",
                "value": 2
            },
            {
                "key": "FlatModifier",
                "selector": "diplomacy",
                "type": "item",
                "value": 2
            },
            {
                "key": "ActiveEffectLike",
                "mode": "add",
                "path": "data.abilities.cha.value",
                "value": 2
            },
            {
                "key": "ActiveEffectLike",
                "mode": "upgrade",
                "path": "data.abilities.cha.value",
                "value": 18
            }
        ],
        "size": {
            "value": "med"
        },
        "source": {
            "value": "Pathfinder Core Rulebook"
        },
        "stackGroup": {
            "value": ""
        },
        "traits": {
            "custom": "",
            "rarity": {
                "value": "common"
            },
            "value": [
                "apex",
                "enchantment",
                "invested",
                "magical"
            ]
        },
        "usage": {
            "value": "worncirclet"
        },
        "weight": {
            "value": "-"
        }
    },
    "effects": [],
    "flags": {},
    "img": "systems/pf2e/icons/equipment/worn-items/apex-items/circlet-of-persuasion.webp",
    "name": "Circlet of Persuasion",
    "type": "equipment"
}
