{
    "_id": "5Vye56emf5vTmHiQ",
    "data": {
        "attributes": {
            "ac": {
                "value": 15
            },
            "hardness": 5,
            "hasHealth": true,
            "hp": {
                "details": "",
                "max": 40,
                "temp": 0,
                "value": 40
            },
            "stealth": {
                "details": "<p>(trained)</p>",
                "value": 10
            }
        },
        "creatureType": "",
        "details": {
            "description": "<p>Fluids from leaking beakers have eaten nearly through the supports holding up this cabinet.</p>\n<p data-visibility=\"gm\">This Broken Threshold for this trap is 10, not 20.</p>",
            "disable": "<p><span data-pf2-check=\"thievery\" data-pf2-traits=\"mechanical,trap\" data-pf2-label=\"Support Cabinet DC\" data-pf2-dc=\"18\" data-pf2-show-dc=\"gm\">Thievery</span> (trained) to gently place something under the cabinet to support its weight.</p>",
            "isComplex": false,
            "level": {
                "value": 3
            },
            "reset": "",
            "routine": ""
        },
        "saves": {
            "fortitude": {
                "saveDetail": "",
                "value": 12
            },
            "reflex": {
                "saveDetail": "",
                "value": 4
            },
            "will": {
                "saveDetail": "",
                "value": 0
            }
        },
        "source": {
            "value": "Pathfinder Society Scenario 2-03: Catastrophe's Spark"
        },
        "statusEffects": [],
        "traits": {
            "ci": [],
            "di": {
                "custom": "",
                "selected": {},
                "value": [
                    "object-immunities",
                    "precision"
                ]
            },
            "dr": [],
            "dv": [],
            "rarity": {
                "value": "common"
            },
            "size": {
                "value": "med"
            },
            "traits": {
                "custom": "",
                "value": [
                    "mechanical",
                    "trap"
                ]
            }
        }
    },
    "effects": [],
    "flags": {},
    "img": "systems/pf2e/icons/default-icons/hazard.svg",
    "items": [
        {
            "_id": "8QIdNIStfCOvNmQv",
            "data": {
                "actionCategory": {
                    "value": "offensive"
                },
                "actionType": {
                    "value": "reaction"
                },
                "actions": {
                    "value": null
                },
                "description": {
                    "value": "<p data-visibility=\"gm\"><strong>Trigger</strong> Someone touches or otherwise interacts with the cabinet;</p>\n<p><strong>Effect</strong> The cabinet falls, splintering on impact. If someone attempts to break the cabinet but its Broken Threshold is not reached in one hit, it falls as well. The cabinet deals [[/r {6d8}[bludgeoning]]]{6d8 bludgeoning damage} to anyone beneath (<span data-pf2-check=\"reflex\" data-pf2-traits=\"mechanical,trap,damaging-effect\" data-pf2-label=\"Slam Down DC\" data-pf2-dc=\"23\" data-pf2-show-dc=\"gm\">basic Reflex</span> save).</p>"
                },
                "requirements": {
                    "value": ""
                },
                "rules": [],
                "slug": null,
                "source": {
                    "value": ""
                },
                "traits": {
                    "custom": "",
                    "rarity": {
                        "value": "common"
                    },
                    "value": []
                },
                "trigger": {
                    "value": ""
                },
                "weapon": {
                    "value": ""
                }
            },
            "effects": [],
            "flags": {},
            "img": "systems/pf2e/icons/actions/Reaction.webp",
            "name": "Slam Down",
            "sort": 0,
            "type": "action"
        }
    ],
    "name": "Collapsing Cabinet (3-4)",
    "token": {
        "disposition": 0,
        "height": 1,
        "img": "systems/pf2e/icons/default-icons/hazard.svg",
        "name": "Collapsing Cabinet",
        "width": 1
    },
    "type": "hazard"
}
