{
    "_id": "tDfv2oEPal19NtSM",
    "data": {
        "actionCategory": {
            "value": "interaction"
        },
        "actionType": {
            "value": "action"
        },
        "actions": {
            "value": 2
        },
        "description": {
            "value": "<p>The ghost creates an illusory double of a creature. The fetch functions as a 2nd-level <em>@Compendium[pf2e.spells-srd.Illusory Creature]{Illusory Creature}</em>, except that the ghost doesn't control the fetch, and the spell lasts for [[/r 1d4 #hours]]{1d4 hours} instead of needing to Sustain the Spell.</p>\n<p>The fetch has a rudimentary intelligence and tries to imitate its original (it has a Deception skill value equal to the ghost's highest skill) but comes across as @Compendium[pf2e.conditionitems.Confused]{Confused} or vague.</p>\n<p>A ghost can have only one fetch at a time. If the creature doubled by the fetch encounters it, the creature must succeed at a <span data-pf2-check=\"will\" data-pf2-dc=\"\" data-pf2-traits=\"divine,illusion\" data-pf2-label=\"Fetch DC\" data-pf2-show-dc=\"gm\">Will</span> save or become @Compendium[pf2e.conditionitems.Stupefied]{Stupefied 1} (@Compendium[pf2e.conditionitems.Stupefied]{Stupefied 2} on a critical failure) for as long as they can see the fetch.</p>"
        },
        "requirements": {
            "value": ""
        },
        "rules": [],
        "source": {
            "value": "Pathfinder #165: Eyes of Empty Death"
        },
        "traits": {
            "custom": "",
            "rarity": {
                "value": "common"
            },
            "value": [
                "divine",
                "illusion"
            ]
        },
        "trigger": {
            "value": ""
        }
    },
    "effects": [],
    "flags": {},
    "img": "systems/pf2e/icons/actions/TwoActions.webp",
    "name": "(Ghost) Fetch",
    "type": "action"
}
