{
    "_id": "jLnyeFUJ76ZZieVJ",
    "content": "<table class=\"pf2-table\">\n<thead>\n<tr>\n<th>\n<h3><strong>Name</strong></h3>\n</th>\n<th>\n<h3><strong>Crit Effect</strong></h3>\n</th>\n<th>\n<h3><strong>Type</strong></h3>\n</th>\n</tr>\n</thead>\n<tbody>\n<tr>\n<td>Funny Bone</td>\n<td>You drop one item you are holding (determined randomly by the GM).</td>\n<td>\n<h3>Melee</h3>\n</td>\n</tr>\n<tr>\n<td>Not my Pony!</td>\n<td>You hit the nearest animal companion, mount, or familiar.</td>\n<td>\n<h3>Ranged</h3>\n</td>\n</tr>\n<tr>\n<td>Bad Headbutt</td>\n<td>You are stunned 1.</td>\n<td>\n<h3>Unarmed</h3>\n</td>\n</tr>\n<tr>\n<td>Caster's Block</td>\n<td>You can't cast this spell again at any level until you rest and make your daily preparations.</td>\n<td>\n<h3>Spell</h3>\n</td>\n</tr>\n</tbody>\n</table>\n<h3 style=\"text-align: left;\"> </h3>",
    "flags": {},
    "name": "Critical Fumble Deck #33",
    "permission": {
        "default": 0
    }
}
