{
    "_id": "VIzeuA9tQEQ7V1Ib",
    "data": {
        "description": {
            "value": "<p>For the duration of the spell, you can use the limning flames as a source for your magic. Creatures affected by your <em>faerie fire</em> must succeed at a Will save against your spell DC or take a -2 status penalty to their Will saves against enchantment and illusions spells as long as they are affected by <em>faerie fire</em>. You can cast an enchantment or illusion spell on such a creature up to a distance twice the spell's normal range. If the spell has a range of touch, or doesn't have a range, it is unaffected by the increase in range from the <em>faerie fire</em>.</p>"
        },
        "duration": {
            "expiry": "turn-start",
            "sustained": false,
            "unit": "minutes",
            "value": 5
        },
        "level": {
            "value": 7
        },
        "rules": [
            {
                "key": "FlatModifier",
                "predicate": {
                    "any": [
                        "enchantment",
                        "illusion"
                    ]
                },
                "selector": "will",
                "type": "status",
                "value": -2
            }
        ],
        "source": {
            "value": ""
        },
        "start": {
            "initiative": null,
            "value": 0
        },
        "target": null,
        "tokenIcon": {
            "show": true
        },
        "traits": {
            "custom": "",
            "rarity": {
                "value": "common"
            },
            "value": []
        }
    },
    "effects": [],
    "flags": {},
    "img": "systems/pf2e/icons/default-icons/effect.svg",
    "name": "Effect: Wand of Fey Flames",
    "type": "effect"
}
