{
    "_id": "zlSNbMDIlTOpcO8R",
    "data": {
        "description": {
            "value": "<p>Granted by @Compendium[pf2e.equipment-srd.Skinstitch Salve]{Skinstitch Salve}</p>\n<hr />\n<p>Auomatically applied effects:</p>\n<ul>\n<li>gain a +2 item bonus to a Medicine check</li>\n</ul>"
        },
        "duration": {
            "expiry": "turn-start",
            "sustained": false,
            "unit": "rounds",
            "value": null
        },
        "level": {
            "value": 7
        },
        "rules": [
            {
                "key": "FlatModifier",
                "selector": "medicine",
                "type": "item",
                "value": 2
            }
        ],
        "source": {
            "value": ""
        },
        "start": {
            "initiative": null,
            "value": 0
        },
        "target": null,
        "tokenIcon": {
            "show": true
        },
        "traits": {
            "custom": "",
            "rarity": {
                "value": "common"
            },
            "value": []
        }
    },
    "effects": [],
    "flags": {},
    "img": "systems/pf2e/icons/equipment/alchemical-items/alchemical-tools/skinitch-salve.webp",
    "name": "Effect: Skinstitch Salve",
    "type": "effect"
}
