{
    "_id": "eyGEoggFlTEUQmvJ",
    "content": "<h1>Bes (The Guardian Fool) [NG]</h1><p>Bes is a member of the pantheon often worshiped in Ancient Osirion.</p><p></span><strong>Edicts</strong> Aid childbirths, spread joy and celebration, protect sleeping creatures</p><p><strong>Anathema</strong> Harm or neglect a child, separate families, use magic to corrupt dreams</p><p><strong>Follower Alignments</strong> LG, NG, CG</span></p><p></span></p><h2>Devotee Benefits</h2><div><div><strong>Divine Ability</strong> Constitution or Charisma</div><div><strong>Divine Font</strong> heal</div><div><strong>Divine Skill</strong> Performance</div><div><strong>Favored Weapon</strong> mambele</div><div><strong>Domains</strong> earth, family, luck, protection</div><div><strong>Cleric Spells</strong> 1st: sleep, 2nd: hideous laughter, 3rd: enthrall</div></div>",
    "flags": {},
    "name": "Bes",
    "permission": {
        "default": 0
    }
}
