{
    "_id": "OeUP3ASaS5deBsWw",
    "data": {
        "actionCategory": {
            "value": ""
        },
        "actionType": {
            "value": "passive"
        },
        "actions": {
            "value": null
        },
        "description": {
            "value": "<p>You strike cleanly with wide, sweeping attacks to inflict maximum damage, taking advantage of your judged foe's fear to land a felling blow. If you Strike a creature you condemned with Harsh Judgment that has the frightened condition with a sweep melee weapon or a sweep unarmed attack, you gain a circumstance bonus to the Strike's damage equal to the number of weapon damage dice your weapon deals.</p>"
        },
        "featType": {
            "value": "archetype"
        },
        "level": {
            "value": 8
        },
        "location": "",
        "prerequisites": {
            "value": [
                {
                    "value": "Vigilante Dedication"
                },
                {
                    "value": "Member of the Grey Gardeners"
                },
                {
                    "value": "Harsh Judgement"
                }
            ]
        },
        "rules": [],
        "source": {
            "value": ""
        },
        "traits": {
            "custom": "",
            "rarity": {
                "value": "common"
            },
            "value": [
                "archetype",
                "vigilante"
            ]
        }
    },
    "effects": [],
    "flags": {},
    "img": "systems/pf2e/icons/default-icons/feats.webp",
    "name": "Accurate Swing",
    "type": "feat"
}
