{
    "_id": "hkSuxXOc9qBleJbd",
    "data": {
        "actionCategory": {
            "value": ""
        },
        "actionType": {
            "value": "action"
        },
        "actions": {
            "value": 2
        },
        "description": {
            "value": "<p>You utter a litany of dreadful names, prophecies, and descriptions of realms beyond mortal comprehension, drawn from your study of forbidden tomes and scrolls. Even those who don't understand your language are unsettled by these dire secrets.</p>\n<p>Attempt an Occultism check and compare the result to the Will DC of an enemy within 30 feet, or to the Will DCs of any number of enemies within 30 feet if you are legendary in Occultism. Those creatures are temporarily immune for 24 hours.</p>\n<hr />\n<p><strong>Critical Success</strong> The target becomes @Compendium[pf2e.conditionitems.Confused]{Confused} for 1 round and @Compendium[pf2e.conditionitems.Frightened]{Frightened 1}.</p>\n<p><strong>Success</strong> The target becomes frightened 1.</p>\n<p><strong>Failure</strong> The target is unaffected.</p>\n<p><strong>Critical Failure</strong> You get overly caught up in your own words</p>\n<p>and become frightened 1.</p>"
        },
        "featType": {
            "value": "skill"
        },
        "level": {
            "value": 7
        },
        "prerequisites": {
            "value": [
                {
                    "value": "master in Occultism"
                }
            ]
        },
        "rules": [],
        "source": {
            "value": "Pathfinder Advanced Player's Guide"
        },
        "traits": {
            "custom": "",
            "rarity": {
                "value": "common"
            },
            "value": [
                "emotion",
                "fear",
                "general",
                "mental",
                "skill"
            ]
        }
    },
    "effects": [],
    "flags": {},
    "img": "systems/pf2e/icons/features/feats/feats.webp",
    "name": "Disturbing Knowledge",
    "type": "feat"
}
