{
    "_id": "yAgFDUU8HfVK4KTy",
    "data": {
        "actionCategory": {
            "value": ""
        },
        "actionType": {
            "value": "action"
        },
        "actions": {
            "value": 1
        },
        "description": {
            "value": "<p>You aim your weapon to snag a foe's armor, clothing, or flesh to pull them closer.</p>\n<p>Make a melee @Compendium[pf2e.actionspf2e.Strike]{Strike}. If you hit a target that is your size or smaller, that creature is @Compendium[pf2e.conditionitems.Flat-Footed]{Flat-Footed} until the end of your current turn, and you can move it 5 feet toward you. When you move the creature, you can move the same distance in the same direction as it, even if you're adjacent to the target. This movement doesn't trigger reactions.</p>\n<p>This Strike has the following failure effect.</p>\n<p><strong>Failure</strong> The target becomes flat-footed until the end of your</p>\n<p>current turn.</p>"
        },
        "featType": {
            "value": "class"
        },
        "level": {
            "value": 2
        },
        "prerequisites": {
            "value": []
        },
        "rules": [],
        "source": {
            "value": "Pathfinder Advanced Player's Guide"
        },
        "traits": {
            "custom": "",
            "rarity": {
                "value": "common"
            },
            "value": [
                "fighter",
                "press"
            ]
        }
    },
    "effects": [],
    "flags": {},
    "img": "systems/pf2e/icons/features/feats/feats.webp",
    "name": "Dragging Strike",
    "type": "feat"
}
