{
    "_id": "YZ138OqflDhrkqmR",
    "data": {
        "actionCategory": {
            "value": ""
        },
        "actionType": {
            "value": "action"
        },
        "actions": {
            "value": 1
        },
        "description": {
            "value": "<p><strong>Frequency</strong> once per hour</p>\n<hr />\n<p>You call on your oath to embolden you in combat. When you Enforce your Oath, select one creature you can see that you've sworn to defeat as part of your oath.</p>\n<p>You gain a +1 status bonus to AC and saves against attacks and effects by the chosen creature. You also gain a +1 status bonus to attack rolls against the chosen creature.</p>\n<p>However, your dedication to Enforcing your Oath draws your focus away from all other foes. While you are Enforcing your Oath, you take a -1 status penalty to AC, attack rolls, and saves against all other creatures until you stop Enforcing your Oath.</p>\n<p>You stop Enforcing your Oath once the chosen creature is reduced to 0 Hit Points or offers a legitimate surrender to you or your allies. You immediately stop Enforcing your Oath if you are @Compendium[pf2e.conditionitems.Unconscious]{Unconscious} or if the chosen creature goes @Compendium[pf2e.conditionitems.Unnoticed]{Unnoticed} by you for more than 1 minute. You can also stop Enforcing your Oath at any time during your turn as a free action.</p>"
        },
        "featType": {
            "value": "class"
        },
        "level": {
            "value": 12
        },
        "location": "",
        "prerequisites": {
            "value": [
                {
                    "value": "You've sworn to an oath against a specific type of creature."
                }
            ]
        },
        "rules": [],
        "source": {
            "value": "Pathfinder Advanced Player's Guide"
        },
        "traits": {
            "custom": "",
            "rarity": {
                "value": "common"
            },
            "value": [
                "champion"
            ]
        }
    },
    "effects": [],
    "flags": {},
    "img": "systems/pf2e/icons/features/feats/feats.webp",
    "name": "Enforce Oath",
    "type": "feat"
}
