{
    "_id": "o3J79hnr00ztcwtT",
    "data": {
        "actionCategory": {
            "value": "offensive"
        },
        "actionType": {
            "value": "action"
        },
        "actions": {
            "value": 1
        },
        "description": {
            "value": "<p><strong>Frequency</strong> once per round.</p>\n<hr />\n<p>You channel potent magic into your next shot, empowering it with a blast of crackling energy. Choose acid, cold, electricity, or fire. If you hit with your next attack roll using a firearm or crossbow before the end of your turn, you deal [[/r {1d6}[additional]]]{1d6 additional damage} of this type. At 12th level, this increases to [[/r {2d6}[additional]]]{2d6 additional damage}, and at 18th level, it increases to [[/r {3d6}[additional]]]{3d6 additional damage}.</p>"
        },
        "featType": {
            "value": "archetype"
        },
        "level": {
            "value": 6
        },
        "location": "",
        "prerequisites": {
            "value": [
                {
                    "value": "Spellshot Dedication"
                }
            ]
        },
        "rules": [],
        "source": {
            "value": "Pathfinder Guns & Gears"
        },
        "traits": {
            "custom": "",
            "rarity": {
                "value": "common"
            },
            "value": [
                "archetype",
                "evocation",
                "magical"
            ]
        }
    },
    "effects": [],
    "flags": {},
    "img": "systems/pf2e/icons/default-icons/feats.webp",
    "name": "Fulminating Shot",
    "type": "feat"
}
