{
    "_id": "YJIzE2RhGRGfbt9j",
    "data": {
        "actionCategory": {
            "value": ""
        },
        "actionType": {
            "value": "reaction"
        },
        "actions": {
            "value": null
        },
        "description": {
            "value": "<p><strong>Trigger</strong> An ally within your melee reach is hit by an attack, you can see the attacker, and a +2 circumstance bonus to AC would turn the critical hit into a hit or the hit into a miss.</p>\n<p><strong>Requirements</strong> You are wielding a single one-handed melee</p>\n<p>weapon and have your other hand or hands free.</p>\n<hr />\n<p>You use your weapon to deflect the attack against your ally, granting a +2 circumstance bonus to their AC against the triggering attack. This turns the triggering critical hit into a hit, or the triggering hit into a miss.</p>\n<p>@Compendium[pf2e.feat-effects.Effect: Guardian's Deflection]{Effect: Guardian's Deflection}</p>"
        },
        "featType": {
            "value": "class"
        },
        "level": {
            "value": 4
        },
        "location": "",
        "prerequisites": {
            "value": []
        },
        "rules": [],
        "source": {
            "value": "Pathfinder Advanced Player's Guide"
        },
        "traits": {
            "custom": "",
            "rarity": {
                "value": "common"
            },
            "value": [
                "swashbuckler"
            ]
        }
    },
    "effects": [],
    "flags": {},
    "img": "systems/pf2e/icons/features/feats/feats.webp",
    "name": "Guardian's Deflection (Swashbuckler)",
    "type": "feat"
}
