{
    "_id": "REgTwIVgI3j1FQiJ",
    "data": {
        "actionCategory": {
            "value": "defensive"
        },
        "actionType": {
            "value": "action"
        },
        "actions": {
            "value": 1
        },
        "description": {
            "value": "<p><strong>Requirements</strong> You're standing on earthen or stone ground.</p>\n<hr />\n<p>You fortify your skin with minerals drawn from earth and stone. You gain resistance 3 to physical damage, except adamantine, until the beginning of your next turn. At 12th level, and every 4 levels thereafter, the resistance increases by 1, to a maximum of resistance 6 at 20th level.</p>"
        },
        "featType": {
            "value": "class"
        },
        "level": {
            "value": 10
        },
        "location": "",
        "prerequisites": {
            "value": [
                {
                    "value": "stone order"
                }
            ]
        },
        "rules": [],
        "source": {
            "value": ""
        },
        "traits": {
            "custom": "",
            "rarity": {
                "value": "common"
            },
            "value": [
                "druid",
                "earth"
            ]
        }
    },
    "effects": [],
    "flags": {},
    "img": "systems/pf2e/icons/default-icons/feat.svg",
    "name": "Harden Flesh",
    "type": "feat"
}
