{
    "_id": "fOIUmDGa9gkeCHA0",
    "data": {
        "actionCategory": {
            "value": ""
        },
        "actionType": {
            "value": "passive"
        },
        "actions": {
            "value": null
        },
        "description": {
            "value": "<p>You have refined your palate and have a discerning sense of taste that can detect abnormalities in the flavor and texture of food and beverages. When eating food or drinking a beverage, you automatically attempt to identify the ingredients, which might alert you to the presence of alterations or additives, such as poisons. The GM rolls a secret Perception check using the poison's level to determine the DC; on a success, you learn that the food or drink was poisoned, but not the specific poison used.</p>\n<p>If you lick or taste something while Investigating or attempting to @Compendium[pf2e.actionspf2e.Recall Knowledge (Lore)]{Recall Knowledge} to identify something, if the taste would provide relevant additional information (at the GM's discretion), you gain a +2 circumstance bonus to your check.</p>"
        },
        "featType": {
            "value": "general"
        },
        "level": {
            "value": 7
        },
        "location": "",
        "prerequisites": {
            "value": [
                {
                    "value": "master in Perception"
                }
            ]
        },
        "rules": [
            {
                "key": "FlatModifier",
                "label": "Supertaster (recall knowledge or investigate via taste)",
                "predicate": {
                    "all": [
                        "taste"
                    ],
                    "any": [
                        "action:recall-knowledge",
                        "action:investigate"
                    ]
                },
                "selector": "skill-check",
                "type": "circumstance",
                "value": 2
            }
        ],
        "source": {
            "value": "Pathfinder Advanced Player's Guide"
        },
        "traits": {
            "custom": "",
            "rarity": {
                "value": "common"
            },
            "value": [
                "general"
            ]
        }
    },
    "effects": [],
    "flags": {},
    "img": "systems/pf2e/icons/features/feats/feats.webp",
    "name": "Supertaster",
    "type": "feat"
}
