{
    "_id": "t3unBu3PX6AO0uIW",
    "data": {
        "actionCategory": {
            "value": ""
        },
        "actionType": {
            "value": "reaction"
        },
        "actions": {
            "value": null
        },
        "description": {
            "value": "<p><strong>Trigger</strong> You critically hit a creature that is not on its home plane.</p>\n<p><strong>Requirements</strong> You have a banishment spell prepared</p>\n<hr />\n<p>The force of your blow sends your victim back to its home plane. You expend a <em>@Compendium[pf2e.spells-srd.Banishment]{Banishment}</em> spell you have prepared, affecting the creature you critically hit without needing to cast the spell. The creature can attempt to resist the spell as normal.</p>"
        },
        "featType": {
            "value": "class"
        },
        "level": {
            "value": 14
        },
        "location": "",
        "prerequisites": {
            "value": []
        },
        "rules": [],
        "source": {
            "value": "Pathfinder Core Rulebook"
        },
        "traits": {
            "custom": "",
            "rarity": {
                "value": "common"
            },
            "value": [
                "cleric"
            ]
        }
    },
    "effects": [],
    "flags": {},
    "img": "systems/pf2e/icons/features/feats/feats.webp",
    "name": "Swift Banishment",
    "type": "feat"
}
