{
    "_id": "h11M3QrIHKLj2ezy",
    "data": {
        "actionCategory": {
            "value": ""
        },
        "actionType": {
            "value": "passive"
        },
        "actions": {
            "value": null
        },
        "description": {
            "value": "<p>You are fastidious about keeping yourself clean, whether licking your fur or carefully using traditional catfolk hygiene products, to salubrious effect.</p>\n<p>You gain a +1 circumstance bonus to saving throws against diseases. If you roll a success on a saving throw against a disease, you get a critical success instead.</p>"
        },
        "featType": {
            "value": "ancestry"
        },
        "level": {
            "value": 9
        },
        "location": "",
        "prerequisites": {
            "value": []
        },
        "rules": [
            {
                "key": "FlatModifier",
                "label": "vs. disease (Well-Groomed)",
                "predicate": {
                    "all": [
                        "disease"
                    ]
                },
                "selector": "saving-throw",
                "type": "circumstance",
                "value": 1
            },
            {
                "adjustment": {
                    "success": "one-degree-better"
                },
                "key": "AdjustDegreeOfSuccess",
                "predicate": {
                    "all": [
                        "disease"
                    ]
                },
                "selector": "saving-throw",
                "type": "save"
            },
            {
                "key": "Note",
                "predicate": {
                    "all": [
                        "disease"
                    ]
                },
                "selector": "saving-throw",
                "text": "<p class='compact-text'><strong>{item|name}</strong> When you roll a success on a saving throw against an disease, you get a critical success instead.</p>"
            }
        ],
        "source": {
            "value": "Pathfinder Advanced Player's Guide"
        },
        "traits": {
            "custom": "",
            "rarity": {
                "value": "common"
            },
            "value": [
                "catfolk"
            ]
        }
    },
    "effects": [],
    "flags": {},
    "img": "systems/pf2e/icons/features/feats/feats.webp",
    "name": "Well-Groomed",
    "type": "feat"
}
