{
    "_id": "lOIu9jYDAR2rDe4p",
    "data": {
        "actionCategory": {
            "value": ""
        },
        "actionType": {
            "value": "passive"
        },
        "actions": {
            "value": null
        },
        "description": {
            "value": "<p><strong>Major Boon</strong>: You become a living secret. You are immune to divination effects and attempts to magically alter your memory, unless you choose to be affected or those effects come from a deity, artifact, or similarly powerful source. You also can never be tricked or forced by mundane means into uttering a secret you wish to keep.</p>"
        },
        "featType": {
            "value": "deityboon"
        },
        "level": {
            "value": 0
        },
        "prerequisites": {
            "value": []
        },
        "rules": [],
        "source": {
            "value": ""
        },
        "traits": {
            "custom": "",
            "rarity": {
                "value": "common"
            },
            "selected": {},
            "value": []
        }
    },
    "effects": [],
    "flags": {},
    "img": "systems/pf2e/icons/deity/Norgorber.webp",
    "name": "Norgorber - Major Boon",
    "type": "feat"
}
