{
    "_id": "g4E9l4uA62LcRBJS",
    "data": {
        "description": {
            "value": "<p>The target's claw attack gains the versatile (piercing) trait.</p>"
        },
        "duration": {
            "expiry": "turn-start",
            "sustained": true,
            "unit": "minutes",
            "value": 1
        },
        "level": {
            "value": 2
        },
        "rules": [
            {
                "damageType": "slashing",
                "key": "DamageDice",
                "selector": "claw-damage",
                "traits": [
                    "versatile-p"
                ]
            }
        ],
        "source": {
            "value": "Pathfinder #171: Hurricane's Howl"
        },
        "start": {
            "initiative": null,
            "value": 0
        },
        "target": null,
        "tokenIcon": {
            "show": true
        },
        "traits": {
            "custom": "",
            "rarity": {
                "value": "common"
            },
            "value": []
        }
    },
    "effects": [],
    "flags": {},
    "img": "systems/pf2e/icons/default-icons/effect.svg",
    "name": "Spell Effect: Clawsong (Versatile Piercing)",
    "type": "effect"
}
