{
    "_id": "I4PsUAaYSUJ8pwKC",
    "data": {
        "description": {
            "value": "<p>Granted by <em>@Compendium[pf2e.spells-srd.Ray of Frost]{Ray of Frost}</em>.</p>\n<p>The cold chills your bones, you take a -10-foot status penalty to your Speeds for 1 round.</p>"
        },
        "duration": {
            "expiry": "turn-start",
            "sustained": false,
            "unit": "rounds",
            "value": 1
        },
        "level": {
            "value": 1
        },
        "rules": [
            {
                "key": "FlatModifier",
                "selector": "speed",
                "type": "status",
                "value": -10
            }
        ],
        "source": {
            "value": ""
        },
        "start": {
            "initiative": null,
            "value": 0
        },
        "target": null,
        "tokenIcon": {
            "show": true
        },
        "traits": {
            "custom": "",
            "rarity": {
                "value": "common"
            },
            "value": []
        }
    },
    "effects": [],
    "flags": {},
    "img": "systems/pf2e/icons/spells/ray-of-frost.webp",
    "name": "Spell Effect: Ray of Frost",
    "type": "effect"
}
