{
    "_id": "LAun416if9NFg3X2",
    "data": {
        "attributes": {
            "ac": {
                "value": 15
            },
            "hardness": 1,
            "hasHealth": true,
            "hp": {
                "details": "",
                "max": 5,
                "temp": 0,
                "tempmax": 0,
                "value": 5
            },
            "stealth": {
                "details": "",
                "value": 5
            }
        },
        "creatureType": "",
        "details": {
            "description": "Wooden barrels marked with an oil-drop symbol catch fire and explode.",
            "disable": "Survival DC 20 to smother the flames without rupturing the barrels",
            "isComplex": false,
            "level": {
                "value": 2
            },
            "reset": "",
            "routine": ""
        },
        "saves": {
            "fortitude": {
                "saveDetail": "",
                "value": 11
            },
            "reflex": {
                "saveDetail": "",
                "value": 3
            },
            "will": {
                "saveDetail": "",
                "value": 0
            }
        },
        "source": {
            "value": "Pathfinder #157: Devil at the Dreaming Palace"
        },
        "statusEffects": [],
        "traits": {
            "ci": [],
            "di": {
                "custom": "",
                "selected": {},
                "value": [
                    "precision",
                    "object-immunities"
                ]
            },
            "dr": [],
            "dv": [],
            "rarity": {
                "value": "common"
            },
            "size": {
                "value": "med"
            },
            "traits": {
                "custom": "",
                "value": [
                    "fire",
                    "environmental"
                ]
            }
        }
    },
    "effects": [],
    "flags": {},
    "img": "systems/pf2e/icons/default-icons/hazard.svg",
    "items": [
        {
            "_id": "QP06eTmf8XusaVPV",
            "data": {
                "actionCategory": {
                    "value": ""
                },
                "actionType": {
                    "value": "reaction"
                },
                "actions": {
                    "value": null
                },
                "description": {
                    "value": "<p data-visibility=\"gm\"><strong>Trigger</strong> 4 rounds pass after the agents' arrival without anyone smothering them;</p>\n<p><strong>Effect</strong> The barrels explode, dealing [[/r {3d6+8}[fire]]]{3d6+8 fire damage} to everything within a 20-foot radius (<span data-pf2-check=\"reflex\" data-pf2-dc=\"20\" data-pf2-traits=\"damaging-effect,fire\" data-pf2-label=\"Explode DC\" data-pf2-show-dc=\"gm\">basic Reflex</span> save).</p>"
                },
                "requirements": {
                    "value": ""
                },
                "rules": [],
                "slug": null,
                "source": {
                    "value": ""
                },
                "traits": {
                    "custom": "",
                    "rarity": {
                        "value": "common"
                    },
                    "selected": {},
                    "value": []
                },
                "trigger": {
                    "value": ""
                },
                "weapon": {
                    "value": ""
                }
            },
            "effects": [],
            "flags": {},
            "img": "systems/pf2e/icons/actions/Reaction.webp",
            "name": "Explode",
            "sort": 100000,
            "type": "action"
        }
    ],
    "name": "Explosive Barrels",
    "token": {
        "disposition": 0,
        "height": 1,
        "img": "systems/pf2e/icons/default-icons/hazard.svg",
        "name": "Explosive Barrels",
        "width": 1
    },
    "type": "hazard"
}
