{
    "_id": "LlZ5R50z9j8jysZL",
    "data": {
        "actionCategory": {
            "value": ""
        },
        "actionType": {
            "value": "passive"
        },
        "actions": {
            "value": null
        },
        "description": {
            "value": "<p>You have learned how to create perpetual alchemical infusions that can provide a near-infinite supply of certain simple items.</p>\n<p>You gain the ability to create two 1st-level alchemical items using @Compendium[pf2e.classfeatures.Quick Alchemy]{Quick Alchemy} without spending a batch of infused reagents. The items you can select depend on your research field and must be in your formula book.</p>\n<hr />\n<p>Choose two common 1st-level alchemical poisons.</p>"
        },
        "featType": {
            "value": "classfeature"
        },
        "level": {
            "value": 7
        },
        "location": "",
        "prerequisites": {
            "value": []
        },
        "rules": [],
        "source": {
            "value": ""
        },
        "traits": {
            "custom": "",
            "rarity": {
                "value": "common"
            },
            "value": [
                "alchemist"
            ]
        }
    },
    "effects": [],
    "flags": {},
    "img": "systems/pf2e/icons/features/classes/perpetual-infusions-chirurgeon.webp",
    "name": "Perpetual Infusions (Toxicologist)",
    "type": "feat"
}
