{
    "_id": "1QMjWGq1DPOQr4VL",
    "data": {
        "ability": {
            "value": ""
        },
        "area": {
            "areaType": "",
            "value": ""
        },
        "autoHeightenLevel": {
            "value": null
        },
        "category": {
            "value": "ritual"
        },
        "components": {
            "focus": false,
            "material": false,
            "somatic": false,
            "verbal": false
        },
        "cost": {
            "value": "candles, specialty salts, and rare herbs worth 80 gp total;"
        },
        "damage": {
            "value": {}
        },
        "description": {
            "value": "<p>In some places, it always feels like something is observing you, as if the very land doesn't want you there. Hostile creatures skitter about in the underbrush. Tendrils of mist try to lead you stray. Even the scent of the place is unwelcoming. Sometimes, this eerie atmosphere is a natural occurrence. Other times, it's the result of the dread ambience ritual.</p>\n<p>To create this unwelcoming, intimidating aura, you must prepare the area with salts and herbs, traveling the entire edge of the area throughout the casting.</p>\n<p>After you complete your ritual, anyone who enters the area receives a status penalty to saving throws against fear effects within the dread ambience.</p>\n<hr />\n<p><strong>Critical Success</strong> The sense of dread is particularly powerful. Every creature in an area takes a -2 status penalty to saving throws against fear effects. @Compendium[pf2e.spell-effects.Spell Effect: Dread Ambience (Critical Success)]{Spell Effect: Dread Ambience (Critical Success)}</p>\n<p><strong>Success</strong> The dread ambience succeeds. Every creature in the area takes a -1 status penalty to saving throws against fear effects. @Compendium[pf2e.spell-effects.Spell Effect: Dread Ambience (Success)]{Spell Effect: Dread Ambience (Success)}</p>\n<p><strong>Failure</strong> The dread ambience fails.</p>\n<p><strong>Critical Failure</strong> The dread ambience fails, and the casters take a -1 status penalty to all Will saves for the next week. @Compendium[pf2e.spell-effects.Spell Effect: Dread Ambience (Critical Failure)]{Spell Effect: Dread Ambience (Critical Failure)}</p>\n<hr />\n<p><strong>Heightened (7th)</strong> The dread ambience costs 750 gp and remains in place for 10 years.</p>\n<p><strong>Heightened (9th)</strong> The dread ambience costs 5,000 gp and remains in place for an unlimited duration.</p>"
        },
        "duration": {
            "value": "1 year"
        },
        "hasCounteractCheck": {
            "value": false
        },
        "level": {
            "value": 5
        },
        "location": {
            "value": ""
        },
        "materials": {
            "value": ""
        },
        "primarycheck": {
            "value": "Arcana or Occultism (expert)"
        },
        "range": {
            "value": ""
        },
        "rules": [],
        "save": {
            "basic": "",
            "value": ""
        },
        "school": {
            "value": "enchantment"
        },
        "secondarycasters": {
            "value": "1"
        },
        "secondarycheck": {
            "value": "Deception"
        },
        "source": {
            "value": "Pathfinder Secrets of Magic"
        },
        "spellType": {
            "value": "utility"
        },
        "sustained": {
            "value": false
        },
        "target": {
            "value": "1 square mile"
        },
        "time": {
            "value": "2 days"
        },
        "traditions": {
            "value": []
        },
        "traits": {
            "custom": "",
            "rarity": {
                "value": "uncommon"
            },
            "value": [
                "consecration",
                "emotion",
                "fear",
                "mental"
            ]
        }
    },
    "effects": [],
    "flags": {},
    "img": "systems/pf2e/icons/default-icons/spell.svg",
    "name": "Dread Ambience",
    "type": "spell"
}
