{
    "_id": "HvBpSeUDg0KcK2Hg",
    "data": {
        "ability": {
            "value": ""
        },
        "area": {
            "areaType": "",
            "value": ""
        },
        "autoHeightenLevel": {
            "value": null
        },
        "category": {
            "value": "spell"
        },
        "components": {
            "focus": false,
            "material": true,
            "somatic": true,
            "verbal": true
        },
        "cost": {
            "value": ""
        },
        "damage": {
            "value": {}
        },
        "description": {
            "value": "<p>Just as a creature is about to attack you, you assault them with jarring illusions, completely surrounding their eyes with blinding flashes of motion and color. When the spell is complete, you gain the @Compendium[pf2e.actionspf2e.Overload Vision]{Overload Vision} reaction; once you use the reaction, the spell ends.</p>\n<p><span data-pf2-check=\"fortitude\" data-pf2-traits=\"illusion,incapacitation,visual\" data-pf2-label=\"Overload Vision DC\" data-pf2-show-dc=\"gm\">Fortitude</span></p>"
        },
        "duration": {
            "value": "24 hours"
        },
        "hasCounteractCheck": {
            "value": false
        },
        "level": {
            "value": 4
        },
        "location": {
            "value": ""
        },
        "materials": {
            "value": ""
        },
        "range": {
            "value": ""
        },
        "rules": [],
        "save": {
            "basic": "",
            "value": ""
        },
        "school": {
            "value": "illusion"
        },
        "source": {
            "value": "Pathfinder Secrets of Magic"
        },
        "spellType": {
            "value": "utility"
        },
        "sustained": {
            "value": false
        },
        "target": {
            "value": ""
        },
        "time": {
            "value": "10 minutes"
        },
        "traditions": {
            "custom": "",
            "value": [
                "arcane",
                "occult",
                "primal"
            ]
        },
        "traits": {
            "custom": "",
            "rarity": {
                "value": "common"
            },
            "value": [
                "contingency",
                "incapacitation",
                "visual"
            ]
        }
    },
    "effects": [],
    "flags": {},
    "img": "systems/pf2e/icons/spells/ocular-overload.webp",
    "name": "Ocular Overload",
    "type": "spell"
}
