{
    "_id": "zCcfPS4y5SrZzU2x",
    "data": {
        "ability": {
            "value": ""
        },
        "area": {
            "areaType": "",
            "value": null
        },
        "areasize": {
            "value": ""
        },
        "category": {
            "value": "spell"
        },
        "components": {
            "material": false,
            "somatic": true,
            "verbal": true
        },
        "cost": {
            "value": ""
        },
        "damage": {
            "value": {}
        },
        "description": {
            "value": "<p>Taking inspiration from verdant creatures, you transform into a Large plant battle form. You must have space to expand into or the spell is lost. When you cast this spell, choose arboreal, flytrap, or shambler. You can substitute a similar specific plant to turn into (such as a pitcher plant instead of a flytrap), but this has no effect on the form's Size or statistics. While in this form, you gain the plant trait. You can Dismiss the spell.</p>\n<p>You gain the following statistics and abilities regardless of which battle form you choose:</p>\n<ul>\n<li>AC = 19 + your level. Ignore your armor's check penalty and Speed reduction.</li>\n<li>12 temporary Hit Points.</li>\n<li>Resistance 10 to poison.</li>\n<li>Low-light vision.</li>\n<li>One or more unarmed melee attacks specific to the battle form you choose, which are the only attacks you can use. You're trained with them. Your attack modifier is +17, and your damage bonus is +11. These attacks are Strength based (for the purpose of the @Compendium[pf2e.conditionitems.Enfeebled]{Enfeebled} condition, for example). If your unarmed attack modifier is higher, you can use it instead.</li>\n<li>Athletics modifier of +19, unless your own modifier is higher.</li>\n</ul>\n<p>You also gain specific abilities based on the type of plant you choose:</p>\n<ul>\n<li><strong>@Compendium[pf2e.spell-effects.Spell Effect: Plant Form (Arboreal)]{Arboreal}</strong>\n<ul>\n<li>Speed 30 feet; you can speak in this form, but you still can't Cast a Spell or supply verbal components.</li>\n<li><strong>Melee</strong> <span class=\"pf2-icon\">1</span> branch (reach 15 feet), <strong>Damage</strong> 2d10 bludgeoning;</li>\n<li><strong>Melee</strong> <span class=\"pf2-icon\">1</span> foot, <strong>Damage</strong> 2d8 bludgeoning;</li>\n</ul>\n</li>\n<li><strong>@Compendium[pf2e.spell-effects.Spell Effect: Plant Form (Flytrap)]{Flytrap}</strong>\n<ul>\n<li>Speed 15 feet; resistance 10 to acid;</li>\n<li><strong>Melee</strong> <span class=\"pf2-icon\">1</span> leaf (reach 10 feet), <strong>Damage</strong> 2d8 piercing, and you can spend an action after a hit to Grab the target.</li>\n</ul>\n</li>\n<li><strong>@Compendium[pf2e.spell-effects.Spell Effect: Plant Form (Shambler)]{Shambler}</strong>\n<ul>\n<li>Speed 20 feet, swim Speed 20 feet; resistance 10 to electricity;</li>\n<li><strong>Melee</strong> <span class=\"pf2-icon\">1</span> vine (reach 15 feet), <strong>Damage</strong> 2d8 slashing.</li>\n</ul>\n</li>\n</ul>\n<hr />\n<p><strong>Heightened (6th)</strong> Your battle form is Huge, and the reach of your attacks increases by 5 feet. You instead gain AC = 22 + your level, 24 temporary HP, attack modifier +21, damage bonus +16, and Athletics +22.</p>"
        },
        "duration": {
            "value": "1 minute"
        },
        "hasCounteractCheck": {
            "value": false
        },
        "level": {
            "value": 5
        },
        "location": {
            "value": ""
        },
        "materials": {
            "value": ""
        },
        "prepared": {
            "value": ""
        },
        "primarycheck": {
            "value": ""
        },
        "range": {
            "value": ""
        },
        "rules": [],
        "save": {
            "basic": "",
            "value": ""
        },
        "school": {
            "value": "transmutation"
        },
        "secondarycasters": {
            "value": ""
        },
        "secondarycheck": {
            "value": ""
        },
        "source": {
            "value": "Pathfinder Core Rulebook"
        },
        "spellType": {
            "value": "utility"
        },
        "sustained": {
            "value": false
        },
        "target": {
            "value": ""
        },
        "time": {
            "value": "2"
        },
        "traditions": {
            "value": [
                "primal"
            ]
        },
        "traits": {
            "custom": "",
            "rarity": {
                "value": "common"
            },
            "value": [
                "plant",
                "polymorph"
            ]
        }
    },
    "effects": [],
    "flags": {},
    "img": "systems/pf2e/icons/spells/plant-form.webp",
    "name": "Plant Form",
    "type": "spell"
}
