{
    "_id": "nrW6lGV4xDMqLS3P",
    "data": {
        "ability": {
            "value": ""
        },
        "area": {
            "areaType": "emanation",
            "value": 30
        },
        "areasize": {
            "value": "30-foot-radius emanation centered on you"
        },
        "category": {
            "value": "focus"
        },
        "components": {
            "material": false,
            "somatic": true,
            "verbal": true
        },
        "cost": {
            "value": ""
        },
        "damage": {
            "value": {
                "0": {
                    "type": {
                        "categories": [],
                        "value": "mental"
                    },
                    "value": "6d6"
                }
            }
        },
        "description": {
            "value": "<p>You call upon the lost and forgotten, assailing your foes' minds with the memories of those who died with a grievance toward them. Enemies in the area take 6d6 mental damage (basic Will save) and are @Compendium[pf2e.conditionitems.Frightened]{Frightened 1} on a critical failure. If you know the names of anyone murdered or grievously wronged by an enemy in the area, you can chant those victims' names when you cast the spell to improve the clarity of the visions, increasing the damage to the corresponding enemy from 6d6 to 6d10; you can do so for multiple enemies if you know victims of each enemy. The visions are personal to each foe in the area, and you can't use this spell to discern a murderer by guessing a name. A creature that truly knows no one who died with any sort of grievance to that creature is immune to this effect.</p>\n<hr />\n<p><strong>Heightened (+1)</strong> The damage increases by 2d6 (or 2d10 to an enemy when you name a specific victim).</p>"
        },
        "duration": {
            "value": ""
        },
        "hasCounteractCheck": {
            "value": false
        },
        "level": {
            "value": 4
        },
        "location": {
            "value": ""
        },
        "materials": {
            "value": ""
        },
        "prepared": {
            "value": ""
        },
        "primarycheck": {
            "value": ""
        },
        "range": {
            "value": ""
        },
        "rules": [],
        "save": {
            "basic": "basic",
            "value": "will"
        },
        "scaling": {
            "damage": {
                "0": "2d6"
            },
            "interval": 1
        },
        "school": {
            "value": "divination"
        },
        "secondarycasters": {
            "value": ""
        },
        "secondarycheck": {
            "value": ""
        },
        "source": {
            "value": "Pathfinder Lost Omens: Gods & Magic"
        },
        "spellType": {
            "value": "save"
        },
        "sustained": {
            "value": false
        },
        "target": {
            "value": ""
        },
        "time": {
            "value": "2"
        },
        "traditions": {
            "custom": "",
            "value": []
        },
        "traits": {
            "custom": "",
            "rarity": {
                "value": "uncommon"
            },
            "value": [
                "cleric",
                "mental"
            ]
        }
    },
    "effects": [],
    "flags": {},
    "img": "systems/pf2e/icons/spells/remember-the-lost.webp",
    "name": "Remember the Lost",
    "type": "spell"
}
