{
    "_id": "RGBZrVRIEDb2G48h",
    "data": {
        "ability": {
            "value": ""
        },
        "area": {
            "value": ""
        },
        "areasize": {
            "value": ""
        },
        "category": {
            "value": "focus"
        },
        "components": {
            "material": false,
            "somatic": true,
            "verbal": true
        },
        "cost": {
            "value": ""
        },
        "damage": {
            "value": {
                "0": {
                    "type": {
                        "categories": [],
                        "value": "healing"
                    },
                    "value": "2d8"
                }
            }
        },
        "description": {
            "value": "<p>You call forth a magical mist of positive energy that envelops a creature.</p>\n<p>The mist restores [[/r {2d8}[healing]]]{2d8 Hit Points} to a target living creature and ends one source of persistent acid, bleed, fire, negative, or poison damage affecting it. If the creature is taking persistent damage from multiple sources, you select which one is removed.</p>\n<p>Against an undead target, you deal [[/r {2d8}[positive]]]{2d8 positive damage} (basic Fortitude save); if it fails the save, it also takes [[/r 2 #persistent positive]] @Compendium[pf2e.conditionitems.Persistent Damage]{Persistent Positive Damage}.</p>\n<hr />\n<p><strong>Heightened (+1)</strong> The amount of healing (or damage to an undead target) increases by [[/r 1d8]], and the persistent positive damage to an undead creature increases by 1.</p>"
        },
        "duration": {
            "value": ""
        },
        "hasCounteractCheck": {
            "value": false
        },
        "level": {
            "value": 2
        },
        "location": {
            "value": ""
        },
        "materials": {
            "value": ""
        },
        "prepared": {
            "value": ""
        },
        "primarycheck": {
            "value": ""
        },
        "range": {
            "value": "30 feet"
        },
        "rules": [],
        "save": {
            "basic": "basic",
            "value": "fortitude"
        },
        "scaling": {
            "damage": {
                "0": "1d8"
            },
            "interval": 1
        },
        "school": {
            "value": "necromancy"
        },
        "secondarycasters": {
            "value": ""
        },
        "secondarycheck": {
            "value": ""
        },
        "source": {
            "value": "Pathfinder Advanced Player's Guide"
        },
        "spellType": {
            "value": "heal"
        },
        "sustained": {
            "value": false
        },
        "target": {
            "value": "1 willing living creature or 1 undead creature"
        },
        "time": {
            "value": "2"
        },
        "traditions": {
            "value": []
        },
        "traits": {
            "custom": "",
            "rarity": {
                "value": "uncommon"
            },
            "value": [
                "healing",
                "positive",
                "ranger"
            ]
        }
    },
    "effects": [],
    "flags": {},
    "img": "systems/pf2e/icons/spells/soothing-mist.webp",
    "name": "Soothing Mist",
    "type": "spell"
}
