{
    "_id": "mMgLHTLHjjGa206q",
    "data": {
        "ability": {
            "value": ""
        },
        "area": {
            "areaType": "",
            "value": ""
        },
        "autoHeightenLevel": {
            "value": null
        },
        "category": {
            "value": "spell"
        },
        "components": {
            "focus": false,
            "material": false,
            "somatic": true,
            "verbal": true
        },
        "cost": {
            "value": ""
        },
        "damage": {
            "value": {}
        },
        "description": {
            "value": "<p>You shroud the target in a powerful predatory aura and amplify its vocalizations. It gains a +1 status bonus to Intimidation checks. Once during this spell's duration, it can take the @Compendium[pf2e.actionspf2e.Thundering Roar]{Thundering Roar} action.</p>\n<p>@Compendium[pf2e.spell-effects.Spell Effect: Thundering Dominance]{Spell Effect: Thundering Dominance}</p>\n<hr />\n<p><strong>Heightened (+2)</strong> The status bonus to Intimidation checks increases by 1 (to a maximum of a +4 status bonus for an 8th-level spell), and the damage from the roar increases by 2d8.</p>"
        },
        "duration": {
            "value": "1 minute"
        },
        "hasCounteractCheck": {
            "value": false
        },
        "level": {
            "value": 2
        },
        "location": {
            "value": ""
        },
        "materials": {
            "value": ""
        },
        "range": {
            "value": "30 feet"
        },
        "rules": [],
        "save": {
            "basic": "",
            "value": ""
        },
        "school": {
            "value": "enchantment"
        },
        "source": {
            "value": "Pathfinder Secrets of Magic"
        },
        "spellType": {
            "value": "utility"
        },
        "sustained": {
            "value": false
        },
        "target": {
            "value": "your companion or eidolon"
        },
        "time": {
            "value": "2"
        },
        "traditions": {
            "custom": "",
            "value": [
                "occult",
                "primal"
            ]
        },
        "traits": {
            "custom": "",
            "rarity": {
                "value": "common"
            },
            "value": [
                "mental"
            ]
        }
    },
    "effects": [],
    "flags": {},
    "img": "systems/pf2e/icons/spells/thundering-dominance.webp",
    "name": "Thundering Dominance",
    "type": "spell"
}
