{
    "_id": "Sm3tKetM6kddTio3",
    "data": {
        "actionCategory": {
            "value": ""
        },
        "actionType": {
            "value": "passive"
        },
        "actions": {
            "value": null
        },
        "description": {
            "value": "<p>You gain nourishment in the same way that the plants or fungi that match your body type normally do, through some combination of photosynthesis, absorbing minerals with your roots, or scavenging decaying matter. You typically do not need to pay for food. If you normally rely on photosynthesis and go without sunlight for 1 week, you begin to starve. You can derive nourishment from specially formulated bottles of sunlight instead of natural sunlight, but these bottles cost 10 times as much as standard rations (or 40 sp).</p>"
        },
        "featType": {
            "value": "ancestryfeature"
        },
        "level": {
            "value": 1
        },
        "location": "",
        "prerequisites": {
            "value": []
        },
        "rules": [],
        "source": {
            "value": ""
        },
        "traits": {
            "custom": "",
            "rarity": {
                "value": "common"
            },
            "value": [
                "leshy"
            ]
        }
    },
    "effects": [],
    "flags": {},
    "img": "systems/pf2e/icons/features/ancestry/plant-nourishment.webp",
    "name": "Plant Nourishment",
    "type": "feat"
}
