{
    "_id": "XREJxXH5jWesYqoO",
    "content": "<p>Play this when a foe within 30 feet makes a melee attack against another creature.</p>\n<hr />\n<p>That foe is @Compendium[pf2e.conditionitems.Fascinated]{Fascinated} with you and it can't end this condition until it takes a hostile action against you or the combat ends.</p>",
    "flags": {},
    "name": "Distract Foe",
    "permission": {
        "default": 0
    }
}
