{
    "_id": "MrGgl8HDfQYITahL",
    "data": {
        "attributes": {
            "ac": {
                "check": 0,
                "details": "",
                "value": 14
            },
            "collisionDC": {
                "value": 16
            },
            "collisionDamage": {
                "value": "3d6"
            },
            "hardness": 5,
            "hp": {
                "brokenThreshold": 5,
                "details": "",
                "max": 48,
                "temp": 0,
                "value": 48
            }
        },
        "details": {
            "AC": 0,
            "crew": "1 pilot",
            "description": "<p>A clockwork wagon is a slow, bulky wagon with cogs and gears running all along its interior and exterior, allowing it to pull about twice as much cargo as an ordinary wagon. However, it has less passenger space than an ordinary cart.</p>",
            "level": {
                "value": 3
            },
            "passengers": "2",
            "pilotingCheck": "Driving Lore (DC 18) or Crafting (DC 20)",
            "price": 160,
            "space": {
                "high": 7,
                "long": 10,
                "wide": 10
            },
            "speed": "20 feet (clockwork)"
        },
        "saves": {
            "fortitude": {
                "item": 0,
                "rank": 0,
                "saveDetail": "",
                "value": 9
            }
        },
        "source": {
            "value": "Pathfinder Guns & Gears"
        },
        "traits": {
            "ci": [],
            "di": {
                "custom": "",
                "value": [
                    "critical-hits",
                    "object-immunities",
                    "precision"
                ]
            },
            "dr": [],
            "dv": [],
            "rarity": {
                "value": "uncommon"
            },
            "size": {
                "value": "lg"
            },
            "traits": {
                "custom": "",
                "value": []
            }
        }
    },
    "effects": [],
    "flags": {},
    "img": "systems/pf2e/icons/default-icons/vehicle.svg",
    "items": [
        {
            "_id": "0pWllu1H0c2ZTJbM",
            "data": {
                "actionCategory": {
                    "value": ""
                },
                "actionType": {
                    "value": "passive"
                },
                "actions": {
                    "value": null
                },
                "description": {
                    "value": "<p>This vehicle is designed to transport heavy cargo over long distances. It can hold 400 Bulk of cargo.</p>"
                },
                "requirements": {
                    "value": ""
                },
                "rules": [],
                "slug": null,
                "source": {
                    "value": ""
                },
                "traits": {
                    "custom": "",
                    "rarity": {
                        "value": "common"
                    },
                    "value": []
                },
                "trigger": {
                    "value": ""
                }
            },
            "effects": [],
            "flags": {},
            "img": "systems/pf2e/icons/actions/Passive.webp",
            "name": "Hauler",
            "sort": 0,
            "type": "action"
        },
        {
            "_id": "7OqKezdHChnhLvmc",
            "data": {
                "actionCategory": {
                    "value": ""
                },
                "actionType": {
                    "value": "passive"
                },
                "actions": {
                    "value": null
                },
                "description": {
                    "value": "<p>This vehicle must move twice its length for each 90-degree turn it makes.</p>"
                },
                "requirements": {
                    "value": ""
                },
                "rules": [],
                "slug": null,
                "source": {
                    "value": ""
                },
                "traits": {
                    "custom": "",
                    "rarity": {
                        "value": "common"
                    },
                    "value": []
                },
                "trigger": {
                    "value": ""
                }
            },
            "effects": [],
            "flags": {},
            "img": "systems/pf2e/icons/actions/Passive.webp",
            "name": "Sluggish",
            "sort": 0,
            "type": "action"
        },
        {
            "_id": "38Zgv0sAfLXH2dfB",
            "data": {
                "actionCategory": {
                    "value": ""
                },
                "actionType": {
                    "value": "passive"
                },
                "actions": {
                    "value": null
                },
                "description": {
                    "value": "<p>1 hour of wind-up, 8 hours of operational time, DC 18, standby</p>"
                },
                "requirements": {
                    "value": ""
                },
                "rules": [],
                "slug": null,
                "source": {
                    "value": ""
                },
                "traits": {
                    "custom": "",
                    "rarity": {
                        "value": "common"
                    },
                    "value": []
                },
                "trigger": {
                    "value": ""
                }
            },
            "effects": [],
            "flags": {},
            "img": "systems/pf2e/icons/actions/Passive.webp",
            "name": "Wind-Up",
            "sort": 0,
            "type": "action"
        }
    ],
    "name": "Clockwork Wagon",
    "token": {
        "disposition": 0,
        "height": 2,
        "img": "systems/pf2e/icons/default-icons/vehicle.svg",
        "name": "Clockwork Wagon",
        "width": 2
    },
    "type": "vehicle"
}
